  
 
  
  
   
  
  
 
   
 
  
 
 
   

REGN. NO: MH12JZ3200

 

' . , O SNo : 01
1571;20106I2013 ’ " MFG CD : RENAUL
: MEEHSRA3603021226 COLOUR : WH|TE

: 0021899 CLASS : LMV

‘ ‘ : MADAN KOTHULE

"- OF .' MOHAN

4" ESS : 52189 LOKMANYA NAGAR SUYOG 800
~ ' ' NR JOGGING PARK

PUNE 411030 /
HP/LEASE: UNION BANK OF INDIA
mODEL : "DUSTER RXZ DCI (HSRA36) Registering Authority \
BODY : SALOON NO. OF CYL : 4 PUNE
HEEL BASE : ' UNLADEN WT : 1420 . \
. . : 0312013 SEATING c : 5 . '
’ EL : DIESEL STANDING c : /
$356. UPTO : 19/06/2028 CU.CAP : 1461

LTT CARD SLNO : 1 21293329 Signature

