0539 - REG, ENGINE,
2003 - REG, ENGINE
2422 - REG, ENGINE*
2609 - REG, ENGINE
3736* - REG, ENGINE, COLOR
7350 - REG, ENGINE, COLOR, MFG, CHASSIS
8423 - REG, ENGINE, COLOR, MFG, CHASSIS 
9360 - REG, COLOR*, ENGINE*, 
IMG_20150421_141842.jpg - MFG, ENGINE, COLOUR   
IMG_20150421_150752.jpg - COLOUR
123711 - REG, ENGINE, COLOR, MFG
141038 - 
wa0000
wa0266
wa0327
wa0380
wa0393
wa0405
wa0408
IMG_20150428_144212.jpg - REG, ENGINE, COLOR, MFG
IMG_20150430_123711.jpg* - REG, Color
