"City"	"Shop Name*"	"Whatsapp No."	"Dealers First Name*"	"Dealer ID"
"Mumbai"	"A to Z motors"	"9819965688"	"Kunal"	"833"
"Mumbai"	"A V Motors"	"9702338735"	"Parvinder"	"71"
"Mumbai"	"A1 Bike Shop"	"8097777415"	"Mohsin"	"393"
"Mumbai"	"Adi Amma"	"8983784048"	"Manish"	"419"
"Mumbai"	"Aflatoon Motors"	"9975255278"	"Arif"	"345"
"Mumbai"	"Akshar Motors"	"8828423344"	"Mayur"	"283"
"Mumbai"	"Ambika Motors"	"8767876706"	"Pravin"	"470"
"Mumbai"	"Apna Motors"	"9220968184"	"Abhishek"	"636"
"Mumbai"	"Auto World Garage"	"9820678640"	"Sharif"	"437"
"Mumbai"	"Bajaj Choice Centre"	"9987699490"	"Asgarali / Husain"	"343"
"Mumbai"	"Bajrang Bike Point"	"9892697965"	"Rajesh"	"556"
"Mumbai"	"Bardi Auto"	"9028786277"	"Usama"	"791"
"Mumbai"	"Bhavya Auto"	"8898846668"	"Nikunj"	"210"
"Mumbai"	"Bhoolku Auto"	"9769112288"	"Kamlesh"	"624"
"Mumbai"	"Bike Bazar"	"9922150511"	"Ahmad"	"790"
"Mumbai"	"Bike Point"	"8976590905"	"Tipu"	"172"
"Mumbai"	"Bike World"	"7030786687"	"Habib"	"NO"
"Mumbai"	"Bike Zone"	"9833844632"	"Lucky"	"363"
"Mumbai"	"Bullet Raja"	"8080768288"	"Rajesh"	"590"
"Mumbai"	"Easy Life"	"8767876706"	"Shanu"	"424"
"Mumbai"	"Esha Motors"	"9892410338"	"Mahendra"	"850"
"Mumbai"	"Famous Motors"	"9819483559"	"Amir"	"420"
"Mumbai"	"G.R. Motors"	"9561726263"	"Avi"	"293"
"Mumbai"	"Golden Bike point"	"9975255278"	"Navshad / Navroz"	"312"
"Mumbai"	"H K Motors"	"8082049132"	"Amir"	"9"
"Mumbai"	"Harbhole Automobiles"	"9769773111"	"Ajay Giri"	"532"
"Mumbai"	"I S Motors"	"7738052786"	"Ismail"	"429"
"Mumbai"	"Inaaya Motors"	"8806167001"	"Asim"	"270"
"Mumbai"	"J D Motors"	"9975552002"	"Junaid"	"433"
"Mumbai"	"Jai Mata Di Motors"	"9820690932"	"Rakesh"	"434"
"Mumbai"	"Jai Shree Krishna Motors"	"9320456000"	"Prem"	"174"
"Mumbai"	"Javed Auto Consultant"	"7738024228"	"Javed"	"626"
"Mumbai"	"Jay Motors"	"7498479208"	"Sanjay"	"126"
"Mumbai"	"Kadri Auto Garage"	"9869485013"	"Ayub"	"627"
"Mumbai"	"Kamal Auto"	"9320227700"	"Kumar"	"683"
"Mumbai"	"Katkar Automobiles"	"9867545820"	"Katkar"	"600"
"Mumbai"	"Khushboo Motors"	"9322371070"	"Shailesh"	"NO"
"Mumbai"	"Laxman Garage"	"8689806266"	"Prakash"	"518"
"Mumbai"	"Laxman Garage"	"8689806266"	"Dhiraj, Laxman"	"43"
"Mumbai"	"Lubna Bike Point"	"9320084018"	"Mukeem"	"428"
"Mumbai"	"Lucky Motors"	"9960753750"	"Lucky"	"171"
"Mumbai"	"M M Bike point"	"9869798448"	"Malang"	"297"
"Mumbai"	"Max Motors"	"9637561213"	"Ravi"	"141"
"Mumbai"	"Moto Rider"	"9819927223"	"Danish"	"100"
"Mumbai"	"N H MOTORS"	"9224422987"	"Niyaz"	"492"
"Mumbai"	"New Ambika motors"	"8767876706"	"Samir"	"606"
"Mumbai"	"New Bike Bazar"	"8237151606"	"Vasi"	"388"
"Mumbai"	"New Rich Motors"	"8623889494"	"Deepak"	"605"
"Mumbai"	"New Riddhi Motors"	"9322555507"	"Dinesh"	"416"
"Mumbai"	"New Royal Motors"	"9699836347 / 8390500819"	"Jamal / Sameer"	"177"
"Mumbai"	"New Star Motors"	"9664127080"	"Shebaz"	"96"
"Mumbai"	"Pappu Auto Care"	"9820831037"	"Pappu"	"534"
"Mumbai"	"Parwati Motors"	"8007770033"	"Navin"	"533"
"Mumbai"	"Raj Motors"	"9833181313"	"Manmeet"	"247"
"Mumbai"	"Rajvi Motors"	"9867868797"	"Rajvi"	"718"
"Mumbai"	"Rishi Bike Bazaar"	"9819083237"	"Girish"	"609"
"Mumbai"	"Roadies Bike Bazaar"	"9819701939"	"Rajesh"	"97"
"Mumbai"	"S K Motors"	"9892427677"	"Shabbo"	"410"
"Mumbai"	"Sadguru Motors"	"9870189972"	"G.S. Kocher / Sunny"	"254"
"Mumbai"	"Sagar Auto"	"9619799688"	"Randir"	"421"
"Mumbai"	"Sai Auto"	"9823353330"	"Santosh"	"115"
"Mumbai"	"Sai Raj Motor"	"9819187773"	"Prashant P"	"462"
"Mumbai"	"Saniya Motors"	"9987680763"	"Shabbir"	"623"
"Mumbai"	"SATGURU MOTORS"	"9175657977"	"Bhupesh"	"753"
"Mumbai"	"Shalimar Bike Bazaar"	"9930999833"	"G.S."	"267"
"Mumbai"	"Shree Ganesh Bhandup"	"8879857467"	"Ram"	"346"
"Mumbai"	"Shree Ganesh Chembur"	"9702944007"	"Dinesh"	"59"
"Mumbai"	"Shree Motors"	"9920590194"	"Rahul"	"668"
"Mumbai"	"Sky Motors"	"9892091942"	"Faeem"	"129"
"Mumbai"	"SS Bikers Zone"	"9769522214"	"Suhail"	"546"
"Mumbai"	"Star Motors"	"9930185527 / 9987432392"	"Anjum, Dastagir"	"871"
"Mumbai"	"Star Motors"	"9930185527/9987432392"	"Anjum, Dastagir"	"39"
"Mumbai"	"Sumit Motors"	"9870407864"	"Girjesh"	"261"
"Mumbai"	"Super bike bazar"	"9867409138"	"superbike"	"557"
"Mumbai"	"Welcome Bike Point"	"8652048988"	"Hadiz / Naveen"	"460"
"Mumbai"	"Y K Motors"	"9869680000"	"Asif Shaikh"	"418"
"Mumbai"	"Zak Motors"	"9821780930"	"Zia"	"645"
